[
  {
    "orders": 200,
    "name": "veg soup"
  },
  {
    "orders": 600,
    "name": "veg curry"
  },
  {
    "orders": 300,
    "name": "veg pasta"
  },
  {
    "orders": 900,
    "name": "veg surprise"
  }
]
